<svg xmlns="http://www.w3.org/2000/svg" xmlns:xlink="http://www.w3.org/1999/xlink" viewBox="0 0 20 20">
  <defs>
    <style>
      .cls-1 {
        clip-path: url(#clip-Icon-Plus);
      }

      .cls-2 {
        fill: #0c9;
      }

      .cls-3 {
        fill: #fff;
      }
    </style>
    <clipPath id="clip-Icon-Plus">
      <rect width="20" height="20"/>
    </clipPath>
  </defs>
  <g id="Icon-Plus" class="cls-1">
    <g id="Group_11" data-name="Group 11" transform="translate(487 44)">
      <rect id="Rectangle_3" data-name="Rectangle 3" class="cls-2" width="20" height="2" transform="translate(-487 -35)"/>
      <rect id="Rectangle_4" data-name="Rectangle 4" class="cls-2" width="20" height="2" transform="translate(-476 -44) rotate(90)"/>
    </g>
  </g>
</svg>
